{
    "children": [
        {"label": 2012, "earnings": 229.64,
            "children": [
                {"label": "Q1", "earnings": 58,
                    "children": [
                        {"label": "January", "earnings": 23.5},
                        {"label": "February","earnings": 10.35},
                        {"label": "March","earnings": 24.15}
                    ]
                },
                {"label": "Q2","earnings": 50.78,
                    "children": [
                        {"label": "April","earnings": 18.6},
                        {"label": "May","earnings": 15.7},
                        {"label": "June","earnings": 16.48}
                    ]
                },
                {"label": "Q3","earnings": 45.89,
                    "children": [
                        {"label": "July","earnings": 16.65},
                        {"label": "August","earnings": 18.3},
                        {"label": "September","earnings": 10.94}
                    ]
                },
                {"label": "Q4","earnings": 74.97,
                    "children": [
                        {"label": "October","earnings": 15.67},
                        {"label": "November","earnings": 27.9},
                        {"label": "December","earnings": 31.4}
                    ]
                }
            ]
        },
        {"label": 2013, "earnings": 359.34,
            "children": [
                {"label": "Q1", "earnings": 58,
                    "children": [
                        {"label": "January", "earnings": 23.5},
                        {"label": "February","earnings": 10.35},
                        {"label": "March","earnings": 24.15}
                    ]
                },
                {"label": "Q2","earnings": 50.78,
                    "children": [
                        {"label": "April","earnings": 18.6},
                        {"label": "May","earnings": 15.7},
                        {"label": "June","earnings": 16.48}
                    ]
                },
                {"label": "Q3","earnings": 45.89,
                    "children": [
                        {"label": "July","earnings": 16.65},
                        {"label": "August","earnings": 18.3},
                        {"label": "September","earnings": 10.94}
                    ]
                },
                {"label": "Q4","earnings": 74.97,
                    "children": [
                        {"label": "October","earnings": 15.67},
                        {"label": "November","earnings": 27.9},
                        {"label": "December","earnings": 31.4}
                    ]
                }
            ]
        
        },
        {"label": 2014, "earnings": 589.12,
            "children": [
                {"label": "Q1", "earnings": 58,
                    "children": [
                        {"label": "January", "earnings": 23.5},
                        {"label": "February","earnings": 10.35},
                        {"label": "March","earnings": 24.15}
                    ]
                },
                {"label": "Q2","earnings": 50.78,
                    "children": [
                        {"label": "April","earnings": 18.6},
                        {"label": "May","earnings": 15.7},
                        {"label": "June","earnings": 16.48}
                    ]
                },
                {"label": "Q3","earnings": 45.89,
                    "children": [
                        {"label": "July","earnings": 16.65},
                        {"label": "August","earnings": 18.3},
                        {"label": "September","earnings": 10.94}
                    ]
                },
                {"label": "Q4","earnings": 74.97,
                    "children": [
                        {"label": "October","earnings": 15.67},
                        {"label": "November","earnings": 27.9},
                        {"label": "December","earnings": 31.4}
                    ]
                }
            ]
        
        },
        {"label": 2015, "earnings": 256.12,
            "children": [
                {"label": "Q1", "earnings": 58,
                    "children": [
                        {"label": "January", "earnings": 23.5},
                        {"label": "February","earnings": 10.35},
                        {"label": "March","earnings": 24.15}
                    ]
                },
                {"label": "Q2","earnings": 50.78,
                    "children": [
                        {"label": "April","earnings": 18.6},
                        {"label": "May","earnings": 15.7},
                        {"label": "June","earnings": 16.48}
                    ]
                },
                {"label": "Q3","earnings": 45.89,
                    "children": [
                        {"label": "July","earnings": 16.65},
                        {"label": "August","earnings": 18.3},
                        {"label": "September","earnings": 10.94}
                    ]
                },
                {"label": "Q4","earnings": 74.97,
                    "children": [
                        {"label": "October","earnings": 15.67},
                        {"label": "November","earnings": 27.9},
                        {"label": "December","earnings": 31.4}
                    ]
                }
            ]
        
        }
    ]
}